category,brand,model,version,displacement,valves,transmission,gears,air_conditioner,steering,fuel_type,nmhc_emission,co_emission,nox_emission,co2_emission_eta,co2_emission_gas,consumption_eta_city,consumption_eta_highway,consumption_gas_city,consumption_gas_highway,relative_label,absolute_label
sub compacto,chery,qq,1.0,1,12,m,5,yes,h,g,0.014,0.132,0.105,NA,105,NA,NA,11.8,13.9,c,c
sub compacto,chery,face,1.3 flex,1.3,16,m,5,yes,h,f,0.023,0.513,0.045,0,120,7,7.4,10.3,12.6,e,e
sub compacto,fiat,uno,mille fire economy 2 portas,1,8,m,5,no,m,f,0.025,0.345,0.044,0,95,8.9,10.7,12.7,15.6,a,a
sub compacto,fiat,uno,mille fire economy 4 portas,1,8,m,5,no,m,f,0.025,0.345,0.044,0,95,8.9,10.7,12.7,15.6,a,a
sub compacto,fiat,uno,mille way economy 2 portas,1,8,m,5,no,m,f,0.025,0.345,0.044,0,102,8.6,9.7,12.4,13.8,b,b
sub compacto,fiat,uno,mille way economy 4 portas,1,8,m,5,no,m,f,0.025,0.345,0.044,0,102,8.6,9.7,12.4,13.8,b,b
sub compacto,fiat,novo uno,economy evo 2 portas,1.4,8,m,5,no,m,f,0.024,0.355,0.027,0,97,8.7,10.4,12.5,15.2,a,a
sub compacto,fiat,novo uno,economy evo 4 portas,1.4,8,m,5,no,m,f,0.024,0.355,0.027,0,97,8.7,10.4,12.5,15.2,a,a
sub compacto,fiat,novo uno,vivace evo 2 portas,1,8,m,5,no,m,f,0.029,0.347,0.046,0,100,8.3,9.4,12.3,14.5,b,b
sub compacto,fiat,novo uno,vivace evo 4 portas,1,8,m,5,no,m,f,0.029,0.347,0.046,0,100,8.3,9.4,12.3,14.5,b,b
